…
``` r
library(tidyverse)
library(glue)
library(gt)
library(scales)
library(simplecolors)

# read in NYT data
raw_words <-
  read_csv("input/nyt_word_list.csv") |>
  as_tibble() |> 
  print()
```

    # A tibble: 2,309 x 1
      word 
      <chr>
    1 cigar
    2 rebut
    3 sissy
    4 humph
    5 awake
    # ... with 2,304 more rows
``` r
# Break out each letter into its own column
word_letters <-
  raw_words |>
  separate(
    col = word,
    sep = "",
    into = paste0("x", 0:5),
    remove = FALSE
  ) |>
  select(-x0) |>
  print()
```

    # A tibble: 2,309 x 6
      word  x1    x2    x3    x4    x5   
      <chr> <chr> <chr> <chr> <chr> <chr>
    1 cigar c     i     g     a     r    
    2 rebut r     e     b     u     t    
    3 sissy s     i     s     s     y    
    4 humph h     u     m     p     h    
    5 awake a     w     a     k     e    
    # ... with 2,304 more rows
…
word_letters_long <- 
  word_letters |> 
  pivot_longer(
    cols = starts_with("x"),
    names_to = "position",
    values_to = "letter"
  ) |> 
   # times letter was used at all 
  add_count(letter, name = "letter_freq") |> 
  # times letter was used in position 
  add_count(letter, position, name = "position_freq") |> 
  print()
```

    # A tibble: 11,545 x 5
      word  position letter letter_freq position_freq
      <chr> <chr>    <chr>        <int>         <int>
    1 cigar x1       c              475           198
    2 cigar x2       i              670           201
    3 cigar x3       g              310            67
    4 cigar x4       a              975           162
    5 cigar x5       r              897           212
    # ... with 11,540 more rows

``` r
# Pivot wider
word_letter_freq <-
  word_letters_long |> 
  select(word, pos = letter, position, freq = position_freq) |>
  pivot_wider(
    names_from = position,
    values_from = c(pos, freq)
  ) |>
  rename_all(str_remove_all, "pos_") |> 
  print()
```

    # A tibble: 2,309 x 11
      word  x1    x2    x3    x4    x5    freq_x1 freq_x2 freq_x3 freq_x4 freq_x5
      <chr> <chr> <chr> <chr> <chr> <chr>   <int>   <int>   <int>   <int>   <int>
    1 cigar c     i     g     a     r         198     201      67     162     212
    2 rebut r     e     b     u     t         105     241      56      82     253
    3 sissy s     i     s     s     y         365     201      80     171     364
    4 humph h     u     m     p     h          69     185      61      50     137
    5 awake a     w     a     k     e         140      44     306      55     422
    # ... with 2,304 more rows
…
    n_6_10 = sum(letter %in% letter_stats$letter[6:10]),
    n_10_15 = sum(letter %in% letter_stats$letter[10:15]),
    n_12_26 = sum(letter %in% letter_stats$letter[12:26]),
    # are the letters closest to the top (1:26, lower is better) 
    mean_letter_rank = mean(letter_ord),
    # are the letter closer to their most common positions (higher is better)
    mean_pos_freq = mean(position_freq) 
    #,mean_letter_freq = mean(letter_freq),sum_letter_freq = sum(letter_freq)
  ) |> 
  ungroup() |> 
  arrange(mean_letter_rank) |> 
  print()
```

    # A tibble: 2,309 x 9
      word  alpha n_letter n_1_5 n_6_10 n_10_15 n_12_26 mean_letter_rank
      <chr> <chr>    <int> <int>  <int>   <int>   <int>            <dbl>
    1 eater aeert        4     5      0       0       0              2.4
    2 rarer aerrr        3     5      0       0       0              2.4
    3 eerie eeeir        3     4      1       0       0              2.6
    4 error eorrr        3     5      0       0       0              2.8
    5 terra aerrt        4     5      0       0       0              2.8
    # ... with 2,304 more rows, and 1 more variable: mean_pos_freq <dbl>

``` r
# find words that have 5 distinct values
distinct_letters <-
  word_stats |> 
  filter(n_letter == 5) |> 
  print()
```

    # A tibble: 1,562 x 9
      word  alpha n_letter n_1_5 n_6_10 n_10_15 n_12_26 mean_letter_rank
      <chr> <chr>    <int> <int>  <int>   <int>   <int>            <dbl>
    1 alert aelrt        5     4      1       0       0              3.4
    2 alter aelrt        5     4      1       0       0              3.4
    3 later aelrt        5     4      1       0       0              3.4
    4 arose aeors        5     4      1       0       0              3.6
    5 irate aeirt        5     4      1       0       0              3.6
    # ... with 1,557 more rows, and 1 more variable: mean_pos_freq <dbl>
…
    words = paste(word, collapse = ","),
    mean_letter_rank = mean(mean_letter_rank), # same across all values
    across(matches("n_\\d"), mean),
  ) |> 
  ungroup() |> 
  # create pattern column, move to front
  # mutate(
  #   pattern = str_replace_all(alpha, "(.)(?=.)", "\\1|"),
  #   .before = everything()
  # ) |> 
  arrange(mean_letter_rank) |> 
  print()
```

    # A tibble: 1,391 x 7
      alpha words                   mean_letter_rank n_1_5 n_6_10 n_10_15 n_12_26
      <chr> <chr>                              <dbl> <dbl>  <dbl>   <dbl>   <dbl>
    1 aelrt later,alter,alert                    3.4     4      1       0       0
    2 aeirt irate                                3.6     4      1       0       0
    3 aeors arose                                3.6     4      1       0       0
    4 aerst stare                                3.8     4      1       0       0
    5 acert crate,trace,cater,react              4.2     4      1       1       0
    # ... with 1,386 more rows
…
